<svg width="20" height="20" viewBox="0 0 20 20" fill="none" xmlns="http://www.w3.org/2000/svg">
<g clip-path="url(#clip0)">
<path d="M7.84747 12.651L7.51663 17.3043C7.98997 17.3043 8.19497 17.101 8.4408 16.8568L10.66 14.736L15.2583 18.1035C16.1016 18.5735 16.6958 18.326 16.9233 17.3277L19.9416 3.18434L19.9425 3.18351C20.21 1.93684 19.4916 1.44934 18.67 1.75518L0.928299 8.54767C-0.282535 9.01767 -0.264202 9.69267 0.722465 9.9985L5.2583 11.4093L15.7941 4.81684C16.29 4.48851 16.7408 4.67017 16.37 4.99851L7.84747 12.651Z" fill="#039BE5"/>
</g>
<defs>
<clipPath id="clip0">
<rect width="20" height="20" fill="white"/>
</clipPath>
</defs>
</svg>
