<svg width="20" height="20" viewBox="0 0 20 20" fill="none" xmlns="http://www.w3.org/2000/svg">
<path d="M0 20L1.72 14.8403C0.847241 13.3724 0.344828 11.6593 0.344828 9.82759C0.344828 4.4 4.74483 0 10.1724 0C15.6 0 20 4.4 20 9.82759C20 15.2552 15.6 19.6552 10.1724 19.6552C8.52103 19.6552 6.96586 19.2459 5.6 18.5266L0 20Z" fill="#2CB742"/>
<path d="M16.4424 13.0981C15.9886 12.2406 14.3152 11.2599 14.3152 11.2599C13.9366 11.044 13.4797 11.0199 13.2638 11.4047C13.2638 11.4047 12.72 12.0568 12.5817 12.1506C11.95 12.5785 11.3648 12.5619 10.7742 11.9712L9.4014 10.5985L8.02864 9.22573C7.43795 8.63504 7.4214 8.04987 7.84933 7.41815C7.94312 7.27987 8.59519 6.73608 8.59519 6.73608C8.98002 6.51987 8.95588 6.06332 8.74002 5.6847C8.74002 5.6847 7.75933 4.01125 6.90174 3.55746C6.53692 3.36435 6.08898 3.43194 5.79726 3.72366L5.19105 4.32987C3.26795 6.25297 4.21485 8.42401 6.13795 10.3471L7.89554 12.1047L9.65312 13.8623C11.5762 15.7854 13.7473 16.7323 15.6704 14.8092L16.2766 14.203C16.5683 13.9106 16.6355 13.4626 16.4424 13.0981Z" fill="white"/>
</svg>
